-192 -192 -192 -192 -192
992
-992
-8 -8 -8 -88 -8 80 -32 -72 -120 -16 -16 -16 424
-8 -16 -24 -32 -40 -48 -56 -64 -72 -80 472
-8 64 -72 -64 752
8 -40 -40 16 -56 -96 -128 -72 472
-16 -56 64 -40 -48 -96 -104 -88 416
-8 -32 -16 -24 -48 -40 -56 -64 -72 560
-8 -8 -8 -8 -8 -8 -8 -8 -8 -8 -8 -8 -8 -8 -8 -8 -8 -8 -8 -8 -8 -8 -8 -8 -8 -8 -8 -8 -8 -8 512
-184 -8 -40 48 -40 -56 -96 464
40 -24 16 -88 -128 -48 600
